{
    "metadata":{
        "requestCategory": "",
        "requestType": "Trial Design",
        "requestMethod": "runALPHALATTICE",
	    "requestDesign": "Alpha Lattice",
        "requestTimestamp": "2018-09-06T08:26:27+08:00",
        "requestId": "TDSGN-2018-09-06-1110222",
        "requestorId": 5
    },
    "parameters":{
        "nTreatment":24,
	    "nBlk":4,
	    "nRep":4,
	    "nTrial":2,
	    "genLayout":"T",
	    "nRowPerBlk":2,
	    "nRowPerRep":4,
	    "nFieldRow":8,
	    "serpentine":"T"
    }
}
