{
    "metadata":{
        "requestCategory": "",
        "requestType": "Trial Design",
        "requestMethod": "rcbd",
        "requestTimestamp": "2018-09-06T08:26:27+08:00",
        "requestId": "TDSGN-2018-09-06-1110222",
        "requestorId": 5
    },
    "parameters":{
        "trt": 25,
        "blk": 3,
        "trial": 4
    }
}
