{
    "metadata":{
        "requestCategory": "",
        "requestType": "Trial Design",
        "requestMethod": "runROWCOLUMN",
	    "requestDesign": "Row-Column",
        "requestTimestamp": "2018-09-06T08:26:27+08:00",
        "requestId": "TDSGN-2018-09-06-1110222",
        "requestorId": 5
    },
    "parameters":{
        "nTreatment": 20,
        "nRowBlk": 4,
	    "nRep": 4,
        "nTrial": 3,
        "genLayout":"T",
        "nFieldRow": 8,
        "serpentine": "T"
    }
}
